D:\The Data Team\Automation\cadenzuiautomation\src\test\java\com\test\SavedAudience.java
D:\The Data Team\Automation\cadenzuiautomation\src\test\java\com\test\AppTest.java
D:\The Data Team\Automation\cadenzuiautomation\src\test\java\com\test\Glossry.java
